…
# the number of unsolved homicides within cities
df_n_unsolved_homicide = df_homicide |> 
  filter(disposition == "Closed without arrest" | disposition == "Open/No arrest") |> 
  group_by(city_state) |> 
  summarise(n_unsolved_homicide = n()) |> 
  arrange(desc(n_unsolved_homicide))

# combine two data sets
df_n_homicide = left_join(df_n_homicide, df_n_unsolved_homicide)

df_n_homicide
```

    ## # A tibble: 51 × 3
    ##    city_state       n_homicide n_unsolved_homicide
    ##    <chr>                 <int>               <int>
    ##  1 Chicago, IL            5535                4073
    ##  2 Philadelphia, PA       3037                1360
    ##  3 Houston, TX            2942                1493
    ##  4 Baltimore, MD          2827                1825
    ##  5 Detroit, MI            2519                1482
    ##  6 Los Angeles, CA        2257                1106
    ##  7 St. Louis, MO          1677                 905
    ##  8 Dallas, TX             1567                 754
    ##  9 Memphis, TN            1514                 483
    ## 10 New Orleans, LA        1434                 930
    ## # ℹ 41 more rows
…
